{
  "img": {
    "name": "img",
    "tag": "amp-img"
  },
  "pixel": {
    "name": "pixel",
    "tag": "amp-pixel"
  },
  "video": {
    "name": "video",
    "tag": "amp-video"
  },
  "a4a": {
    "name": "a4a",
    "tag": "a4a",
    "script": {
      "tag": "amp-a4a",
      "url": "https://cdn.ampproject.org/v0/amp-a4a-0.1.js"
    }
  },
  "access": {
    "name": "access",
    "tag": "access",
    "script": {
      "tag": "amp-access",
      "url": "https://cdn.ampproject.org/v0/amp-access-0.1.js"
    }
  },
  "accordion": {
    "name": "accordion",
    "tag": "accordion",
    "script": {
      "tag": "amp-accordion",
      "url": "https://cdn.ampproject.org/v0/amp-accordion-0.1.js"
    }
  },
  "ad": {
    "name": "ad",
    "tag": "ad",
    "script": {
      "tag": "amp-ad",
      "url": "https://cdn.ampproject.org/v0/amp-ad-0.1.js"
    }
  },
  "ad-network-adsense-impl": {
    "name": "ad-network-adsense-impl",
    "tag": "ad-network-adsense-impl",
    "script": {
      "tag": "amp-ad-network-adsense-impl",
      "url": "https://cdn.ampproject.org/v0/amp-ad-network-adsense-impl-0.1.js"
    }
  },
  "ad-network-doubleclick-impl": {
    "name": "ad-network-doubleclick-impl",
    "tag": "ad-network-doubleclick-impl",
    "script": {
      "tag": "amp-ad-network-doubleclick-impl",
      "url": "https://cdn.ampproject.org/v0/amp-ad-network-doubleclick-impl-0.1.js"
    }
  },
  "ad-network-fake-impl": {
    "name": "ad-network-fake-impl",
    "tag": "ad-network-fake-impl",
    "script": {
      "tag": "amp-ad-network-fake-impl",
      "url": "https://cdn.ampproject.org/v0/amp-ad-network-fake-impl-0.1.js"
    }
  },
  "analytics": {
    "name": "analytics",
    "tag": "analytics",
    "script": {
      "tag": "amp-analytics",
      "url": "https://cdn.ampproject.org/v0/amp-analytics-0.1.js"
    }
  },
  "anim": {
    "name": "anim",
    "tag": "anim",
    "script": {
      "tag": "amp-anim",
      "url": "https://cdn.ampproject.org/v0/amp-anim-0.1.js"
    }
  },
  "apester-media": {
    "name": "apester-media",
    "tag": "apester-media",
    "script": {
      "tag": "amp-apester-media",
      "url": "https://cdn.ampproject.org/v0/amp-apester-media-0.1.js"
    }
  },
  "app-banner": {
    "name": "app-banner",
    "tag": "app-banner",
    "script": {
      "tag": "amp-app-banner",
      "url": "https://cdn.ampproject.org/v0/amp-app-banner-0.1.js"
    }
  },
  "audio": {
    "name": "audio",
    "tag": "audio",
    "script": {
      "tag": "amp-audio",
      "url": "https://cdn.ampproject.org/v0/amp-audio-0.1.js"
    }
  },
  "brid-player": {
    "name": "brid-player",
    "tag": "brid-player",
    "script": {
      "tag": "amp-brid-player",
      "url": "https://cdn.ampproject.org/v0/amp-brid-player-0.1.js"
    }
  },
  "brightcove": {
    "name": "brightcove",
    "tag": "brightcove",
    "script": {
      "tag": "amp-brightcove",
      "url": "https://cdn.ampproject.org/v0/amp-brightcove-0.1.js"
    }
  },
  "carousel": {
    "name": "carousel",
    "tag": "carousel",
    "script": {
      "tag": "amp-carousel",
      "url": "https://cdn.ampproject.org/v0/amp-carousel-0.1.js"
    }
  },
  "dailymotion": {
    "name": "dailymotion",
    "tag": "dailymotion",
    "script": {
      "tag": "amp-dailymotion",
      "url": "https://cdn.ampproject.org/v0/amp-dailymotion-0.1.js"
    }
  },
  "dynamic-css-classes": {
    "name": "dynamic-css-classes",
    "tag": "dynamic-css-classes",
    "script": {
      "tag": "amp-dynamic-css-classes",
      "url": "https://cdn.ampproject.org/v0/amp-dynamic-css-classes-0.1.js"
    }
  },
  "experiment": {
    "name": "experiment",
    "tag": "experiment",
    "script": {
      "tag": "amp-experiment",
      "url": "https://cdn.ampproject.org/v0/amp-experiment-0.1.js"
    }
  },
  "facebook": {
    "name": "facebook",
    "tag": "facebook",
    "script": {
      "tag": "amp-facebook",
      "url": "https://cdn.ampproject.org/v0/amp-facebook-0.1.js"
    }
  },
  "fit-text": {
    "name": "fit-text",
    "tag": "fit-text",
    "script": {
      "tag": "amp-fit-text",
      "url": "https://cdn.ampproject.org/v0/amp-fit-text-0.1.js"
    }
  },
  "font": {
    "name": "font",
    "tag": "font",
    "script": {
      "tag": "amp-font",
      "url": "https://cdn.ampproject.org/v0/amp-font-0.1.js"
    }
  },
  "form": {
    "name": "form",
    "tag": "form",
    "script": {
      "tag": "amp-form",
      "url": "https://cdn.ampproject.org/v0/amp-form-0.1.js"
    }
  },
  "fresh": {
    "name": "fresh",
    "tag": "fresh",
    "script": {
      "tag": "amp-fresh",
      "url": "https://cdn.ampproject.org/v0/amp-fresh-0.1.js"
    }
  },
  "fx-flying-carpet": {
    "name": "fx-flying-carpet",
    "tag": "fx-flying-carpet",
    "script": {
      "tag": "amp-fx-flying-carpet",
      "url": "https://cdn.ampproject.org/v0/amp-fx-flying-carpet-0.1.js"
    }
  },
  "gfycat": {
    "name": "gfycat",
    "tag": "gfycat",
    "script": {
      "tag": "amp-gfycat",
      "url": "https://cdn.ampproject.org/v0/amp-gfycat-0.1.js"
    }
  },
  "google-vrview-image": {
    "name": "google-vrview-image",
    "tag": "google-vrview-image",
    "script": {
      "tag": "amp-google-vrview-image",
      "url": "https://cdn.ampproject.org/v0/amp-google-vrview-image-0.1.js"
    }
  },
  "iframe": {
    "name": "iframe",
    "tag": "iframe",
    "script": {
      "tag": "amp-iframe",
      "url": "https://cdn.ampproject.org/v0/amp-iframe-0.1.js"
    }
  },
  "image-lightbox": {
    "name": "image-lightbox",
    "tag": "image-lightbox",
    "script": {
      "tag": "amp-image-lightbox",
      "url": "https://cdn.ampproject.org/v0/amp-image-lightbox-0.1.js"
    }
  },
  "instagram": {
    "name": "instagram",
    "tag": "instagram",
    "script": {
      "tag": "amp-instagram",
      "url": "https://cdn.ampproject.org/v0/amp-instagram-0.1.js"
    }
  },
  "install-serviceworker": {
    "name": "install-serviceworker",
    "tag": "install-serviceworker",
    "script": {
      "tag": "amp-install-serviceworker",
      "url": "https://cdn.ampproject.org/v0/amp-install-serviceworker-0.1.js"
    }
  },
  "jwplayer": {
    "name": "jwplayer",
    "tag": "jwplayer",
    "script": {
      "tag": "amp-jwplayer",
      "url": "https://cdn.ampproject.org/v0/amp-jwplayer-0.1.js"
    }
  },
  "kaltura-player": {
    "name": "kaltura-player",
    "tag": "kaltura-player",
    "script": {
      "tag": "amp-kaltura-player",
      "url": "https://cdn.ampproject.org/v0/amp-kaltura-player-0.1.js"
    }
  },
  "lightbox": {
    "name": "lightbox",
    "tag": "lightbox",
    "script": {
      "tag": "amp-lightbox",
      "url": "https://cdn.ampproject.org/v0/amp-lightbox-0.1.js"
    }
  },
  "lightbox-viewer": {
    "name": "lightbox-viewer",
    "tag": "lightbox-viewer",
    "script": {
      "tag": "amp-lightbox-viewer",
      "url": "https://cdn.ampproject.org/v0/amp-lightbox-viewer-0.1.js"
    }
  },
  "list": {
    "name": "list",
    "tag": "list",
    "script": {
      "tag": "amp-list",
      "url": "https://cdn.ampproject.org/v0/amp-list-0.1.js"
    }
  },
  "live-list": {
    "name": "live-list",
    "tag": "live-list",
    "script": {
      "tag": "amp-live-list",
      "url": "https://cdn.ampproject.org/v0/amp-live-list-0.1.js"
    }
  },
  "mustache": {
    "name": "mustache",
    "tag": "mustache",
    "script": {
      "tag": "amp-mustache",
      "url": "https://cdn.ampproject.org/v0/amp-mustache-0.1.js"
    }
  },
  "o2-player": {
    "name": "o2-player",
    "tag": "o2-player",
    "script": {
      "tag": "amp-o2-player",
      "url": "https://cdn.ampproject.org/v0/amp-o2-player-0.1.js"
    }
  },
  "pinterest": {
    "name": "pinterest",
    "tag": "pinterest",
    "script": {
      "tag": "amp-pinterest",
      "url": "https://cdn.ampproject.org/v0/amp-pinterest-0.1.js"
    }
  },
  "reach-player": {
    "name": "reach-player",
    "tag": "reach-player",
    "script": {
      "tag": "amp-reach-player",
      "url": "https://cdn.ampproject.org/v0/amp-reach-player-0.1.js"
    }
  },
  "share-tracking": {
    "name": "share-tracking",
    "tag": "share-tracking",
    "script": {
      "tag": "amp-share-tracking",
      "url": "https://cdn.ampproject.org/v0/amp-share-tracking-0.1.js"
    }
  },
  "sidebar": {
    "name": "sidebar",
    "tag": "sidebar",
    "script": {
      "tag": "amp-sidebar",
      "url": "https://cdn.ampproject.org/v0/amp-sidebar-0.1.js"
    }
  },
  "slides": {
    "name": "slides",
    "tag": "slides",
    "script": {
      "tag": "amp-slides",
      "url": "https://cdn.ampproject.org/v0/amp-slides-0.1.js"
    }
  },
  "social-share": {
    "name": "social-share",
    "tag": "social-share",
    "script": {
      "tag": "amp-social-share",
      "url": "https://cdn.ampproject.org/v0/amp-social-share-0.1.js"
    }
  },
  "soundcloud": {
    "name": "soundcloud",
    "tag": "soundcloud",
    "script": {
      "tag": "amp-soundcloud",
      "url": "https://cdn.ampproject.org/v0/amp-soundcloud-0.1.js"
    }
  },
  "springboard-player": {
    "name": "springboard-player",
    "tag": "springboard-player",
    "script": {
      "tag": "amp-springboard-player",
      "url": "https://cdn.ampproject.org/v0/amp-springboard-player-0.1.js"
    }
  },
  "sticky-ad": {
    "name": "sticky-ad",
    "tag": "sticky-ad",
    "script": {
      "tag": "amp-sticky-ad",
      "url": "https://cdn.ampproject.org/v0/amp-sticky-ad-0.1.js"
    }
  },
  "twitter": {
    "name": "twitter",
    "tag": "twitter",
    "script": {
      "tag": "amp-twitter",
      "url": "https://cdn.ampproject.org/v0/amp-twitter-0.1.js"
    }
  },
  "user-notification": {
    "name": "user-notification",
    "tag": "user-notification",
    "script": {
      "tag": "amp-user-notification",
      "url": "https://cdn.ampproject.org/v0/amp-user-notification-0.1.js"
    }
  },
  "vimeo": {
    "name": "vimeo",
    "tag": "vimeo",
    "script": {
      "tag": "amp-vimeo",
      "url": "https://cdn.ampproject.org/v0/amp-vimeo-0.1.js"
    }
  },
  "vine": {
    "name": "vine",
    "tag": "vine",
    "script": {
      "tag": "amp-vine",
      "url": "https://cdn.ampproject.org/v0/amp-vine-0.1.js"
    }
  },
  "viz-vega": {
    "name": "viz-vega",
    "tag": "viz-vega",
    "script": {
      "tag": "amp-viz-vega",
      "url": "https://cdn.ampproject.org/v0/amp-viz-vega-0.1.js"
    }
  },
  "youtube": {
    "name": "youtube",
    "tag": "youtube",
    "script": {
      "tag": "amp-youtube",
      "url": "https://cdn.ampproject.org/v0/amp-youtube-0.1.js"
    }
  }
}